EESchema Schematic File Version 4
EELAYER 30 0
EELAYER END
$Descr A3 16535 11693
encoding utf-8
Sheet 1 1
Title "Fan controller"
Date "2021-07-18"
Rev "1"
Comp ""
Comment1 "Jacek Łysiak"
Comment2 ""
Comment3 ""
Comment4 ""
$EndDescr
$Comp
L Device:Fuse_Small F1
U 1 1 60F42617
P 1510 1600
F 0 "F1" H 1510 1785 50  0000 C CNN
F 1 "5A" H 1510 1694 50  0000 C CNN
F 2 "" H 1510 1600 50  0001 C CNN
F 3 "~" H 1510 1600 50  0001 C CNN
	1    1510 1600
	1    0    0    -1  
$EndComp
$Comp
L Relay:RT314A24 K1
U 1 1 60F46819
P 4330 1500
F 0 "K1" V 3763 1500 50  0000 C CNN
F 1 "RT314A24" V 3854 1500 50  0000 C CNN
F 2 "Relay_THT:Relay_SPDT_Schrack-RT1-16A-FormC_RM5mm" H 5880 1450 50  0001 C CNN
F 3 "https://www.te.com/commerce/DocumentDelivery/DDEController?Action=srchrtrv&DocNm=RT1_bistable&DocType=DS&DocLang=English" H 4330 1500 50  0001 C CNN
	1    4330 1500
	0    1    1    0   
$EndComp
$Comp
L Connector:Screw_Terminal_01x03 J2
U 1 1 60F47BF3
P 5670 2000
F 0 "J2" H 5750 2042 50  0000 L CNN
F 1 "FAN MOTOR" H 5750 1951 50  0000 L CNN
F 2 "" H 5670 2000 50  0001 C CNN
F 3 "~" H 5670 2000 50  0001 C CNN
	1    5670 2000
	1    0    0    -1  
$EndComp
Wire Wire Line
	5470 1900 5170 1900
Text Label 5230 1900 0    50   ~ 0
L_HI
Text Label 5230 2000 0    50   ~ 0
L_LOW
Text Label 5220 2100 0    50   ~ 0
N
Wire Wire Line
	5090 2000 5090 1800
Wire Wire Line
	5090 1800 4630 1800
Wire Wire Line
	5090 2000 5470 2000
Wire Wire Line
	3700 2100 5470 2100
Wire Wire Line
	3700 1700 4030 1700
Wire Wire Line
	5170 1600 5170 1900
Wire Wire Line
	4630 1600 5170 1600
Wire Wire Line
	3100 1600 3040 1600
Wire Wire Line
	1610 1600 2410 1600
$Comp
L Connector:Screw_Terminal_01x02 J1
U 1 1 60F5EAF7
P 1100 1700
F 0 "J1" H 1018 1375 50  0000 C CNN
F 1 "AC INPUT" H 1018 1466 50  0000 C CNN
F 2 "" H 1100 1700 50  0001 C CNN
F 3 "~" H 1100 1700 50  0001 C CNN
	1    1100 1700
	-1   0    0    1   
$EndComp
Text Label 1940 1700 0    50   ~ 0
AC_N
Text Label 1930 1600 0    50   ~ 0
AC_L
Wire Wire Line
	4030 1300 3980 1300
Wire Wire Line
	4630 1300 4750 1300
Text Label 3980 1300 1    50   ~ 0
R_SPEED_2
Text Label 4660 1300 1    50   ~ 0
R_SPEED_1
$Comp
L Device:Transformer_1P_1S T1
U 1 1 60F678BB
P 3460 2900
F 0 "T1" H 3460 3281 50  0000 C CNN
F 1 "230/12" H 3460 3190 50  0000 C CNN
F 2 "Transformer_THT:Transformer_Breve_TEZ-28x33" H 3460 2900 50  0001 C CNN
F 3 "~" H 3460 2900 50  0001 C CNN
	1    3460 2900
	1    0    0    -1  
$EndComp
Wire Wire Line
	3040 1600 3040 2700
Wire Wire Line
	3040 2700 3060 2700
Connection ~ 3040 1600
Wire Wire Line
	3040 1600 2810 1600
Wire Wire Line
	2810 2000 2810 3100
Wire Wire Line
	2810 3100 3060 3100
Wire Wire Line
	2810 2000 3100 2000
Wire Wire Line
	3700 1200 3840 1200
Text Label 3720 1200 1    50   ~ 0
R_POW_1
Wire Wire Line
	3100 1200 2880 1200
Text Label 2960 1200 1    50   ~ 0
R_POW_2
$Comp
L Relay:RT44xxxx K2
U 1 1 60F43C3C
P 3400 1600
F 0 "K2" V 2633 1600 50  0000 C CNN
F 1 "RT44xxxx" V 2724 1600 50  0000 C CNN
F 2 "Relay_THT:Relay_DPST_Schrack-RT2-FormA_RM5mm" H 3400 1600 50  0001 C CNN
F 3 "http://www.te.com/commerce/DocumentDelivery/DDEController?Action=showdoc&DocId=Data+Sheet%7FRT2%7F1014%7Fpdf%7FEnglish%7FENG_DS_RT2_1014.pdf%7F6-1393243-3" H 3400 1600 50  0001 C CNN
	1    3400 1600
	0    1    1    0   
$EndComp
Wire Wire Line
	3860 3100 4100 3100
Wire Wire Line
	1300 1600 1410 1600
Wire Wire Line
	1300 1700 2410 1700
$Comp
L Connector:Screw_Terminal_01x02 J4
U 1 1 60FC1351
P 7820 2500
F 0 "J4" H 7900 2492 50  0000 L CNN
F 1 "POWER RELAY" H 7900 2401 50  0000 L CNN
F 2 "" H 7820 2500 50  0001 C CNN
F 3 "~" H 7820 2500 50  0001 C CNN
	1    7820 2500
	1    0    0    -1  
$EndComp
$Comp
L Connector:Screw_Terminal_01x02 J6
U 1 1 60FC279D
P 7820 2870
F 0 "J6" H 7900 2862 50  0000 L CNN
F 1 "POWER RELAY FOOT SWITCH" H 7900 2771 50  0000 L CNN
F 2 "" H 7820 2870 50  0001 C CNN
F 3 "~" H 7820 2870 50  0001 C CNN
	1    7820 2870
	1    0    0    -1  
$EndComp
$Comp
L Diode:1N4001 D2
U 1 1 60FC3393
P 7230 2560
F 0 "D2" V 7184 2640 50  0000 L CNN
F 1 "1N4001" V 7275 2640 50  0000 L CNN
F 2 "Diode_THT:D_DO-41_SOD81_P10.16mm_Horizontal" H 7230 2385 50  0001 C CNN
F 3 "http://www.vishay.com/docs/88503/1n4001.pdf" H 7230 2560 50  0001 C CNN
	1    7230 2560
	0    1    1    0   
$EndComp
$Comp
L Connector:Screw_Terminal_01x02 J3
U 1 1 60FC5360
P 9630 2490
F 0 "J3" H 9710 2482 50  0000 L CNN
F 1 "SPEED RELAY" H 9710 2391 50  0000 L CNN
F 2 "" H 9630 2490 50  0001 C CNN
F 3 "~" H 9630 2490 50  0001 C CNN
	1    9630 2490
	1    0    0    -1  
$EndComp
$Comp
L Connector:Screw_Terminal_01x02 J5
U 1 1 60FC55EE
P 9630 2860
F 0 "J5" H 9710 2852 50  0000 L CNN
F 1 "SPEED RELAY SWITCH" H 9710 2761 50  0000 L CNN
F 2 "" H 9630 2860 50  0001 C CNN
F 3 "~" H 9630 2860 50  0001 C CNN
	1    9630 2860
	1    0    0    -1  
$EndComp
$Comp
L Diode:1N4001 D1
U 1 1 60FC55F8
P 9000 2550
F 0 "D1" V 8954 2630 50  0000 L CNN
F 1 "1N4001" V 9045 2630 50  0000 L CNN
F 2 "Diode_THT:D_DO-41_SOD81_P10.16mm_Horizontal" H 9000 2375 50  0001 C CNN
F 3 "http://www.vishay.com/docs/88503/1n4001.pdf" H 9000 2550 50  0001 C CNN
	1    9000 2550
	0    1    1    0   
$EndComp
$Comp
L Diode_Bridge:DF01M D3
U 1 1 60FCEDE5
P 4600 2880
F 0 "D3" V 4646 2536 50  0000 R CNN
F 1 "DF01M" V 4555 2536 50  0000 R CNN
F 2 "Diode_THT:Diode_Bridge_DIP-4_W7.62mm_P5.08mm" H 4750 3005 50  0001 L CNN
F 3 "http://www.vishay.com/docs/88571/dfm.pdf" H 4600 2880 50  0001 C CNN
	1    4600 2880
	0    -1   -1   0   
$EndComp
Wire Wire Line
	4300 2700 4300 2880
Wire Wire Line
	3860 2700 4300 2700
Wire Wire Line
	4900 2880 4900 3400
Wire Wire Line
	4900 3400 4100 3400
Wire Wire Line
	4100 3400 4100 3100
Wire Wire Line
	4600 2580 4600 2400
Wire Wire Line
	4600 2400 5300 2400
Wire Wire Line
	4600 3170 4600 3180
Connection ~ 4600 3180
Wire Wire Line
	4600 3180 4600 3300
$Comp
L Regulator_Linear:LM7812_TO220 U1
U 1 1 60FD7246
P 5700 2400
F 0 "U1" H 5700 2642 50  0000 C CNN
F 1 "LM7812_TO220" H 5700 2551 50  0000 C CNN
F 2 "Package_TO_SOT_THT:TO-220-3_Vertical" H 5700 2625 50  0001 C CIN
F 3 "https://www.onsemi.cn/PowerSolutions/document/MC7800-D.PDF" H 5700 2350 50  0001 C CNN
	1    5700 2400
	1    0    0    -1  
$EndComp
Wire Wire Line
	5700 2700 5700 3300
Wire Wire Line
	4600 3300 5300 3300
Wire Wire Line
	6000 2400 6200 2400
$Comp
L power:+12V #PWR03
U 1 1 60FDB7BB
P 6410 2400
F 0 "#PWR03" H 6410 2250 50  0001 C CNN
F 1 "+12V" H 6425 2573 50  0000 C CNN
F 2 "" H 6410 2400 50  0001 C CNN
F 3 "" H 6410 2400 50  0001 C CNN
	1    6410 2400
	1    0    0    -1  
$EndComp
$Comp
L power:GND #PWR06
U 1 1 60FDC1AB
P 6410 3410
F 0 "#PWR06" H 6410 3160 50  0001 C CNN
F 1 "GND" H 6415 3237 50  0000 C CNN
F 2 "" H 6410 3410 50  0001 C CNN
F 3 "" H 6410 3410 50  0001 C CNN
	1    6410 3410
	1    0    0    -1  
$EndComp
Wire Wire Line
	6410 3300 6410 3410
Connection ~ 5700 3300
$Comp
L Device:C C1
U 1 1 60FDDD7F
P 6200 2800
F 0 "C1" H 6315 2846 50  0000 L CNN
F 1 "100n" H 6315 2755 50  0000 L CNN
F 2 "Capacitor_THT:C_Axial_L3.8mm_D2.6mm_P7.50mm_Horizontal" H 6238 2650 50  0001 C CNN
F 3 "~" H 6200 2800 50  0001 C CNN
	1    6200 2800
	1    0    0    -1  
$EndComp
$Comp
L Device:CP C2
U 1 1 60FDECA7
P 5300 2820
F 0 "C2" H 5418 2866 50  0000 L CNN
F 1 "100u" H 5418 2775 50  0000 L CNN
F 2 "Capacitor_THT:C_Radial_D4.0mm_H7.0mm_P1.50mm" H 5338 2670 50  0001 C CNN
F 3 "~" H 5300 2820 50  0001 C CNN
	1    5300 2820
	1    0    0    -1  
$EndComp
Connection ~ 5300 2400
Wire Wire Line
	5300 2400 5400 2400
Wire Wire Line
	5300 2400 5300 2670
Wire Wire Line
	5300 2970 5300 3300
Connection ~ 5300 3300
Wire Wire Line
	5300 3300 5700 3300
Connection ~ 6200 2400
Wire Wire Line
	6200 2400 6410 2400
Wire Wire Line
	6200 2400 6200 2650
Wire Wire Line
	6200 2950 6200 3300
Wire Wire Line
	5700 3300 6200 3300
Connection ~ 6200 3300
Wire Wire Line
	6200 3300 6410 3300
Wire Wire Line
	7230 2410 7230 2200
Wire Wire Line
	7230 2200 7620 2200
Wire Wire Line
	7620 2200 7620 2100
Wire Wire Line
	7620 2200 7620 2500
Connection ~ 7620 2200
Wire Wire Line
	7620 2600 7620 2800
Wire Wire Line
	7620 2970 7620 3130
$Comp
L power:GND #PWR04
U 1 1 60FEA36F
P 7620 3130
F 0 "#PWR04" H 7620 2880 50  0001 C CNN
F 1 "GND" H 7625 2957 50  0000 C CNN
F 2 "" H 7620 3130 50  0001 C CNN
F 3 "" H 7620 3130 50  0001 C CNN
	1    7620 3130
	1    0    0    -1  
$EndComp
Wire Wire Line
	7230 2710 7230 2800
Wire Wire Line
	7230 2800 7620 2800
Connection ~ 7620 2800
Wire Wire Line
	7620 2800 7620 2870
$Comp
L power:+12V #PWR01
U 1 1 60FEB835
P 7620 2100
F 0 "#PWR01" H 7620 1950 50  0001 C CNN
F 1 "+12V" H 7635 2273 50  0000 C CNN
F 2 "" H 7620 2100 50  0001 C CNN
F 3 "" H 7620 2100 50  0001 C CNN
	1    7620 2100
	1    0    0    -1  
$EndComp
Wire Wire Line
	9000 2400 9000 2200
Wire Wire Line
	9000 2200 9430 2200
Wire Wire Line
	9430 2490 9430 2200
Wire Wire Line
	9430 2590 9430 2780
Wire Wire Line
	9430 2960 9430 3130
$Comp
L power:GND #PWR05
U 1 1 60FF394D
P 9430 3130
F 0 "#PWR05" H 9430 2880 50  0001 C CNN
F 1 "GND" H 9435 2957 50  0000 C CNN
F 2 "" H 9430 3130 50  0001 C CNN
F 3 "" H 9430 3130 50  0001 C CNN
	1    9430 3130
	1    0    0    -1  
$EndComp
$Comp
L power:+12V #PWR02
U 1 1 60FF3DB7
P 9430 2140
F 0 "#PWR02" H 9430 1990 50  0001 C CNN
F 1 "+12V" H 9445 2313 50  0000 C CNN
F 2 "" H 9430 2140 50  0001 C CNN
F 3 "" H 9430 2140 50  0001 C CNN
	1    9430 2140
	1    0    0    -1  
$EndComp
Wire Wire Line
	9430 2140 9430 2200
Connection ~ 9430 2200
Wire Wire Line
	9000 2700 9000 2780
Wire Wire Line
	9000 2780 9430 2780
Connection ~ 9430 2780
Wire Wire Line
	9430 2780 9430 2860
$Comp
L Switch:SW_DPST SW1
U 1 1 60FFA403
P 2610 1700
F 0 "SW1" H 2610 2025 50  0000 C CNN
F 1 "MAIN POWER SW" H 2610 1934 50  0000 C CNN
F 2 "" H 2610 1700 50  0001 C CNN
F 3 "~" H 2610 1700 50  0001 C CNN
	1    2610 1700
	1    0    0    -1  
$EndComp
Wire Wire Line
	2410 1700 2410 1800
Wire Wire Line
	2810 1800 2810 2000
Connection ~ 2810 2000
$EndSCHEMATC
